[
  {
    "type": "maze_move",
    "message0": "%{BKY_MAZE_MOVE_FORWARD}",
    "previousStatement": null,
    "nextStatement": null
  },
  {
    "type": "maze_turn",
    "message0": "%1",
    "args0": [
      {
        "type": "field_dropdown",
        "name": "DIRECTION",
        "options": [
          ["%{BKY_MAZE_TURN_RIGHT}", "RIGHT"],
          ["%{BKY_MAZE_TURN_LEFT}", "LEFT"]
        ]
      }
    ],
    "previousStatement": null,
    "nextStatement": null
  }
]