{
     "Style": "classic",
     "BlockCategoryList": [
          {
               "CategoryName": "MOVE",
               "ColorHex": "#2c6145",
               "BlockTypePrefix": "maze"
          },
          {
               "CategoryName": "IF",
               "ColorHex": "#9c3d84",
               "BlockTypePrefix": "if"
          },
          {
               "CategoryName": "REPEAT",
               "ColorHex": "#5580cc",
               "BlockTypePrefix": "repeat"
          },
          {
               "CategoryName": "LOGIC",
               "ColorHex": "#e5892d",
               "BlockTypePrefix": "logic"
          }
     ]
}
